{
    "pageParams": [
        1
    ],
    "pages": [
        {
            "dates": [Object
            ],
            "page": 1,
            "results": [Array
            ],
            "total_pages": 2,
            "total_results": 28
        }
    ]
}